%YAML 1.1
%TAG !u! tag:unity3d.com,2011:
--- !u!1 &515785441329911834
GameObject:
  m_ObjectHideFlags: 0
  m_CorrespondingSourceObject: {fileID: 0}
  m_PrefabInstance: {fileID: 0}
  m_PrefabAsset: {fileID: 0}
  serializedVersion: 6
  m_Component:
  - component: {fileID: 6992431024084275361}
  m_Layer: 0
  m_Name: FirePoint
  m_TagString: Untagged
  m_Icon: {fileID: 0}
  m_NavMeshLayer: 0
  m_StaticEditorFlags: 0
  m_IsActive: 1
--- !u!4 &6992431024084275361
Transform:
  m_ObjectHideFlags: 0
  m_CorrespondingSourceObject: {fileID: 0}
  m_PrefabInstance: {fileID: 0}
  m_PrefabAsset: {fileID: 0}
  m_GameObject: {fileID: 515785441329911834}
  m_LocalRotation: {x: 0, y: 0, z: 0, w: 1}
  m_LocalPosition: {x: 0, y: 0, z: 0}
  m_LocalScale: {x: 1, y: 1, z: 1}
  m_Children: []
  m_Father: {fileID: 5149483002375793815}
  m_RootOrder: 0
  m_LocalEulerAnglesHint: {x: 0, y: 0, z: 0}
--- !u!65 &1762597355939516508
BoxCollider:
  m_ObjectHideFlags: 0
  m_CorrespondingSourceObject: {fileID: 0}
  m_PrefabInstance: {fileID: 0}
  m_PrefabAsset: {fileID: 0}
  m_GameObject: {fileID: 5493673759572571693}
  m_Material: {fileID: 0}
  m_IsTrigger: 0
  m_Enabled: 1
  serializedVersion: 2
  m_Size: {x: 1.9404336, y: 0.5192919, z: 1.9490552}
  m_Center: {x: -0.008468926, y: -0.24035406, z: 0.012701273}
--- !u!114 &3544410957914324904
MonoBehaviour:
  m_ObjectHideFlags: 0
  m_CorrespondingSourceObject: {fileID: 0}
  m_PrefabInstance: {fileID: 0}
  m_PrefabAsset: {fileID: 0}
  m_GameObject: {fileID: 5493673759572571693}
  m_Enabled: 1
  m_EditorHideFlags: 0
  m_Script: {fileID: 11500000, guid: 63f0e745a35f44c4da9e90f640de92fe, type: 3}
  m_Name: 
  m_EditorClassIdentifier: 
  bulletDamage: 0
  bulletSpeed: 0
  bulletFireRate: 0
  bulletRange: 0
  bulletExplosionRadius: 0
  ammoType: 0
  effectType: 0
  firePoint: {fileID: 6992431024084275361}
--- !u!114 &5411156454306413328
MonoBehaviour:
  m_ObjectHideFlags: 0
  m_CorrespondingSourceObject: {fileID: 0}
  m_PrefabInstance: {fileID: 0}
  m_PrefabAsset: {fileID: 0}
  m_GameObject: {fileID: 5493673759572571693}
  m_Enabled: 1
  m_EditorHideFlags: 0
  m_Script: {fileID: 11500000, guid: 63361f74908ad4e41a9a9d17b7e80e1e, type: 3}
  m_Name: 
  m_EditorClassIdentifier: 
  towerNeutralMaterial: {fileID: 2100000, guid: ef40429d0dd193b4d844f9d8afb13ed6,
    type: 2}
  towerSelectedMaterial: {fileID: 2100000, guid: 69ec82604217ed147a6c924765575d2b,
    type: 2}
  towerBlueprinty: {fileID: 11400000, guid: aa5d4ed2bf550c14d8d43dd7084eed0e, type: 2}
  bulletDamage: 0
  bulletSpeed: 0
  bulletFireRate: 0
  bulletRange: 0
  bulletExplosionRadius: 0
  towerAmmoType: 0
  towerAmmoEffectType: 0
--- !u!1001 &4682647384662477692
PrefabInstance:
  m_ObjectHideFlags: 0
  serializedVersion: 2
  m_Modification:
    m_TransformParent: {fileID: 0}
    m_Modifications:
    - target: {fileID: -8679921383154817045, guid: d7fde2524fb134143a6514d0ef59ebd4,
        type: 3}
      propertyPath: m_LocalPosition.x
      value: 0
      objectReference: {fileID: 0}
    - target: {fileID: -8679921383154817045, guid: d7fde2524fb134143a6514d0ef59ebd4,
        type: 3}
      propertyPath: m_LocalPosition.y
      value: 0
      objectReference: {fileID: 0}
    - target: {fileID: -8679921383154817045, guid: d7fde2524fb134143a6514d0ef59ebd4,
        type: 3}
      propertyPath: m_LocalPosition.z
      value: 0
      objectReference: {fileID: 0}
    - target: {fileID: -8679921383154817045, guid: d7fde2524fb134143a6514d0ef59ebd4,
        type: 3}
      propertyPath: m_LocalRotation.x
      value: 0
      objectReference: {fileID: 0}
    - target: {fileID: -8679921383154817045, guid: d7fde2524fb134143a6514d0ef59ebd4,
        type: 3}
      propertyPath: m_LocalRotation.y
      value: 0
      objectReference: {fileID: 0}
    - target: {fileID: -8679921383154817045, guid: d7fde2524fb134143a6514d0ef59ebd4,
        type: 3}
      propertyPath: m_LocalRotation.z
      value: 0
      objectReference: {fileID: 0}
    - target: {fileID: -8679921383154817045, guid: d7fde2524fb134143a6514d0ef59ebd4,
        type: 3}
      propertyPath: m_LocalRotation.w
      value: 1
      objectReference: {fileID: 0}
    - target: {fileID: -8679921383154817045, guid: d7fde2524fb134143a6514d0ef59ebd4,
        type: 3}
      propertyPath: m_RootOrder
      value: 0
      objectReference: {fileID: 0}
    - target: {fileID: -8679921383154817045, guid: d7fde2524fb134143a6514d0ef59ebd4,
        type: 3}
      propertyPath: m_LocalEulerAnglesHint.x
      value: 0
      objectReference: {fileID: 0}
    - target: {fileID: -8679921383154817045, guid: d7fde2524fb134143a6514d0ef59ebd4,
        type: 3}
      propertyPath: m_LocalEulerAnglesHint.y
      value: 0
      objectReference: {fileID: 0}
    - target: {fileID: -8679921383154817045, guid: d7fde2524fb134143a6514d0ef59ebd4,
        type: 3}
      propertyPath: m_LocalEulerAnglesHint.z
      value: 0
      objectReference: {fileID: 0}
    - target: {fileID: -8679921383154817045, guid: d7fde2524fb134143a6514d0ef59ebd4,
        type: 3}
      propertyPath: m_LocalScale.x
      value: 2.2
      objectReference: {fileID: 0}
    - target: {fileID: -8679921383154817045, guid: d7fde2524fb134143a6514d0ef59ebd4,
        type: 3}
      propertyPath: m_LocalScale.z
      value: 2.2
      objectReference: {fileID: 0}
    - target: {fileID: -7918335002988649766, guid: d7fde2524fb134143a6514d0ef59ebd4,
        type: 3}
      propertyPath: m_Materials.Array.data[0]
      value: 
      objectReference: {fileID: 2100000, guid: ef40429d0dd193b4d844f9d8afb13ed6, type: 2}
    - target: {fileID: -7511558181221131132, guid: d7fde2524fb134143a6514d0ef59ebd4,
        type: 3}
      propertyPath: m_Materials.Array.data[0]
      value: 
      objectReference: {fileID: 2100000, guid: ef40429d0dd193b4d844f9d8afb13ed6, type: 2}
    - target: {fileID: -7023974396876390944, guid: d7fde2524fb134143a6514d0ef59ebd4,
        type: 3}
      propertyPath: m_Materials.Array.data[0]
      value: 
      objectReference: {fileID: 2100000, guid: ef40429d0dd193b4d844f9d8afb13ed6, type: 2}
    - target: {fileID: -3393059317818742671, guid: d7fde2524fb134143a6514d0ef59ebd4,
        type: 3}
      propertyPath: m_Materials.Array.data[0]
      value: 
      objectReference: {fileID: 2100000, guid: 1509ad6a3b713e3498f878475bd2281a, type: 2}
    - target: {fileID: 882129737928793925, guid: d7fde2524fb134143a6514d0ef59ebd4,
        type: 3}
      propertyPath: m_Materials.Array.data[0]
      value: 
      objectReference: {fileID: 2100000, guid: ef40429d0dd193b4d844f9d8afb13ed6, type: 2}
    - target: {fileID: 919132149155446097, guid: d7fde2524fb134143a6514d0ef59ebd4,
        type: 3}
      propertyPath: m_Name
      value: LightHitterTowers-v1-Tower2
      objectReference: {fileID: 0}
    - target: {fileID: 2786534777698132407, guid: d7fde2524fb134143a6514d0ef59ebd4,
        type: 3}
      propertyPath: m_Materials.Array.data[0]
      value: 
      objectReference: {fileID: 2100000, guid: ef40429d0dd193b4d844f9d8afb13ed6, type: 2}
    - target: {fileID: 7339356831882890532, guid: d7fde2524fb134143a6514d0ef59ebd4,
        type: 3}
      propertyPath: m_Materials.Array.data[0]
      value: 
      objectReference: {fileID: 2100000, guid: ef40429d0dd193b4d844f9d8afb13ed6, type: 2}
    m_RemovedComponents: []
  m_SourcePrefab: {fileID: 100100000, guid: d7fde2524fb134143a6514d0ef59ebd4, type: 3}
--- !u!1 &5493673759572571693 stripped
GameObject:
  m_CorrespondingSourceObject: {fileID: 919132149155446097, guid: d7fde2524fb134143a6514d0ef59ebd4,
    type: 3}
  m_PrefabInstance: {fileID: 4682647384662477692}
  m_PrefabAsset: {fileID: 0}
--- !u!4 &5149483002375793815 stripped
Transform:
  m_CorrespondingSourceObject: {fileID: -8679921383154817045, guid: d7fde2524fb134143a6514d0ef59ebd4,
    type: 3}
  m_PrefabInstance: {fileID: 4682647384662477692}
  m_PrefabAsset: {fileID: 0}
