%YAML 1.1
%TAG !u! tag:unity3d.com,2011:
--- !u!114 &11400000
MonoBehaviour:
  m_ObjectHideFlags: 0
  m_CorrespondingSourceObject: {fileID: 0}
  m_PrefabInstance: {fileID: 0}
  m_PrefabAsset: {fileID: 0}
  m_GameObject: {fileID: 0}
  m_Enabled: 1
  m_EditorHideFlags: 0
  m_Script: {fileID: 11500000, guid: f182b5026ce05fa42995aa2354d7b571, type: 3}
  m_Name: TowerBlueprinty32_Light
  m_EditorClassIdentifier: 
  towerPrefab: {fileID: 768526143984936783, guid: a7458257e696d684d8d55be8ad286fec,
    type: 3}
  cost: 650
  towerType: 0
  ammoType: 0
  ammoEffectType: 0
  power: 32
