%YAML 1.1
%TAG !u! tag:unity3d.com,2011:
--- !u!114 &11400000
MonoBehaviour:
  m_ObjectHideFlags: 0
  m_CorrespondingSourceObject: {fileID: 0}
  m_PrefabInstance: {fileID: 0}
  m_PrefabAsset: {fileID: 0}
  m_GameObject: {fileID: 0}
  m_Enabled: 1
  m_EditorHideFlags: 0
  m_Script: {fileID: 11500000, guid: f182b5026ce05fa42995aa2354d7b571, type: 3}
  m_Name: TowerBlueprinty2_Hard
  m_EditorClassIdentifier: 
  towerPrefab: {fileID: 2937830985214042922, guid: e0898588d52414c4d8f012a0a08a5152,
    type: 3}
  cost: 50
  towerType: 2
  ammoType: 1
  ammoEffectType: 1
  power: 2
